Effect size dataset from NHS TT annual reports — effect_size • nhstt
…
#>   ■■■■■■■■■■■■■■■■■■■■■■■          6/8 |  3s
#>   ■■■■■■■■■■■■■■■■■■■■■■■■■■■      7/8 |  2s
#>   ■■■■■■■■■■■■■■■■■■■■■■■■■■■■■■■  8/8 |  0s
#> 
#> ℹ Downloading and extracting 8 archives
#> ✔ Downloaded and extracted 8 archives [13.7s]
#> 
#> ℹ Tidying effect_size dataset
#> ✔ Tidied effect_size dataset [23.6s]
#> 
#> ✔ Setup complete! Access data with `effect_size`
#> ℹ Data cached in /home/runner/.cache/R/nhstt (0.7 MB)
effect_size
#> ℹ Loading effect_size dataset from cache
#> # A tibble: 1,169,560 × 14
#>    start_date end_date   period org_type org_code org_name proms
#>    <date>     <date>     <chr>  <chr>    <chr>    <chr>    <chr>
#>  1 2017-04-01 2018-03-31 fy1718 England  All      All      PHQ9 
#>  2 2017-04-01 2018-03-31 fy1718 England  All      All      PHQ9 
#>  3 2017-04-01 2018-03-31 fy1718 England  All      All      PHQ9 
#>  4 2017-04-01 2018-03-31 fy1718 England  All      All      PHQ9 
#>  5 2017-04-01 2018-03-31 fy1718 England  All      All      PHQ9 
#>  6 2017-04-01 2018-03-31 fy1718 England  All      All      PHQ9 
#>  7 2017-04-01 2018-03-31 fy1718 England  All      All      PHQ9 
#>  8 2017-04-01 2018-03-31 fy1718 England  All      All      PHQ9 
#>  9 2017-04-01 2018-03-31 fy1718 England  All      All      PHQ9 
#> 10 2017-04-01 2018-03-31 fy1718 England  All      All      PHQ9 
#> # ℹ 1,169,550 more rows
#> # ℹ 7 more variables: initial_caseness <chr>, variable_type <chr>,
#> #   variable_a <chr>, variable_b <chr>, statistic <chr>, measure <chr>,
#> #   value <dbl>
…
